Data Visualization - Picking the right chart types
…
Name of Island (Categorical / Spatial)

Sex (Categorical)

Bill Length (Continuous Variable)

Bill Depth (Continuous Variable)

Body Mass Index (Continuous Variable)

Year (Time)

Table of data

# A tibble: 333 × 8
   species island    bill_length_mm bill_depth_mm flipper_length_mm body_mass_g
   <fct>   <fct>              <dbl>         <dbl>             <int>       <int>
 1 Adelie  Torgersen           39.1          18.7               181        3750
 2 Adelie  Torgersen           39.5          17.4               186        3800
 3 Adelie  Torgersen           40.3          18                 195        3250
 4 Adelie  Torgersen           36.7          19.3               193        3450
 5 Adelie  Torgersen           39.3          20.6               190        3650
 6 Adelie  Torgersen           38.9          17.8               181        3625
 7 Adelie  Torgersen           39.2          19.6               195        4675
 8 Adelie  Torgersen           41.1          17.6               182        3200
 9 Adelie  Torgersen           38.6          21.2               191        3800
10 Adelie  Torgersen           34.6          21.1               198        4400
# ℹ 323 more rows
# ℹ 2 more variables: sex <fct>, year <int>
…
Visualizing 2 continuous variables

# A tibble: 342 × 2
   flipper_length_mm body_mass_g
               <int>       <int>
 1               181        3750
 2               186        3800
 3               195        3250
 4               193        3450
 5               190        3650
 6               181        3625
 7               195        4675
 8               193        3475
 9               190        4250
10               186        3300
# ℹ 332 more rows
…
Changes in categorical data over time

# A tibble: 344 × 2
    year species
   <int> <fct>  
 1  2007 Adelie 
 2  2007 Adelie 
 3  2007 Adelie 
 4  2007 Adelie 
 5  2007 Adelie 
 6  2007 Adelie 
 7  2007 Adelie 
 8  2007 Adelie 
 9  2007 Adelie 
10  2007 Adelie 
# ℹ 334 more rows
…
